opt bcache R 4 52
opt bcache R 64 69
opt bcache R 256 122
opt bcache S 4 54
opt bcache S 64 69
opt bcache S 256 123
opt dcache R 4 52
opt dcache R 64 69
opt dcache R 256 122
opt dcache S 4 54
opt dcache S 64 69
opt dcache S 256 123
opt nocache R 4 52
opt nocache R 64 69
opt nocache R 256 122
opt nocache S 4 54
opt nocache S 64 69
opt nocache S 256 123
opt icache R 4 52
opt icache R 64 69
opt icache R 256 122
opt icache S 4 54
opt icache S 64 69
opt icache S 256 123
noopt bcache R 4 108
noopt bcache R 64 200
noopt bcache R 256 502
noopt bcache S 4 110
noopt bcache S 64 204
noopt bcache S 256 507
noopt dcache R 4 108
noopt dcache R 64 201
noopt dcache R 256 504
noopt dcache S 4 110
noopt dcache S 64 203
noopt dcache S 256 506
noopt nocache R 4 109
noopt nocache R 64 201
noopt nocache R 256 501
noopt nocache S 4 111
noopt nocache S 64 203
noopt nocache S 256 504
noopt icache R 4 108
noopt icache R 64 201
noopt icache R 256 504
noopt icache S 4 110
noopt icache S 64 203
noopt icache S 256 506
